{
  "extends": [
    "tslint:latest",
    "tslint-react"
  ],
  "rules": {
    "quotemark": [
      true,
      "single"
    ],
    "no-submodule-imports": false,
    "trailing-comma": true,
    "no-this-assignment": false,
    "semicolon": false,
    "no-implicit-dependencies": false,
    "indent": [true, "spaces", 2]
  }
}